{
  "Configuration": {
    "Appenders": {
      "RollingFile": [
        {
          "name": "TraceAppender",
          "fileName": "${sys:catalina.home}/logs/news_admin_trace.log",
          "filePattern": "logs/log-%d{yyyy-MM-dd}-%i.txt",
          "PatternLayout": {
            "pattern": "%d{ISO8601} %-5level %logger{36} - %msg%n"
          },
          "Policies": {
            "SizeBasedTriggeringPolicy": {
              "size": "5 KB"
            }
          },
          "DefaultRolloverStrategy": {
            "max": "20"
          }
        },
        {
          "name": "ErrorAppender",
          "fileName": "${sys:catalina.home}/logs/news_admin_error.log",
          "filePattern": "logs/log-%d{yyyy-MM-dd}-%i.txt",
          "PatternLayout": {
            "pattern": "%d{ISO8601} %-5level %logger{36} - %msg%n"
          },
          "Policies": {
            "SizeBasedTriggeringPolicy": {
              "size": "5 KB"
            }
          },
          "DefaultRolloverStrategy": {
            "max": "20"
          }
        }
      ]
    },
    "Loggers": {
      "Logger": [
        {
          "name":"com.marchenko",
          "level": "trace",
          "AppenderRef": {
            "ref": "TraceAppender"
          }
        }
      ],
      "Root": {
        "level": "error",
        "AppenderRef": {
          "ref": "ErrorAppender"
        }

      }
    }
  }
}